Local Maximum — local_maximum • lasR
…
    Examples

f <- system.file("extdata", "MixedConifer.las", package = "lasR")
read <- reader(f)
lmf <- local_maximum(3)
ans <- processor(read + lmf)
ans
#> Simple feature collection with 297 features and 5 fields
#> Geometry type: POINT
#> Dimension:     XYZ
#> Bounding box:  xmin: 481260 ymin: 3812921 xmax: 481349.8 ymax: 3813011
#> z_range:       zmin: 2.16 zmax: 32.07
#> Projected CRS: NAD83 / UTM zone 12N
#> # A tibble: 297 × 6
#>    Intensity gpstime ReturnNumber Classification ScanAngle
#>        <int>   <dbl>        <int>          <int>     <dbl>
#>  1       141 151388.            1              1        -4
#>  2        81 151388.            1              1        -6
#>  3       115 149929.            1              1        16
#>  4       136 149930.            1              1        16
#>  5       107 151388.            1              1        -5
#>  6         3 151388.            1              1        -5
#>  7       116 151388.            1              1        -8
#>  8        13 149930.            1              1        17
#>  9        18 149930.            1              1        17
#> 10       137 149930.            1              1        17
#> # ℹ 287 more rows
#> # ℹ 1 more variable: geom <POINT [m]>
…
